waveforms/addi.s.vcd
$date
2021-12-10T09:09+0000
$end
$version
0.2
$end
$comment

$end
$timescale 1ns  $end
$scope module Tile $end
 $var wire 1 * io_regsWriteEnable $end
 $var wire 32 + io_regsReadData $end
 $var wire 32 4 io_IMEMAddress $end
 $var wire 1 < io_regsDeviceWriteEnable $end
 $var wire 32 I io_DMEMAddress $end
 $var wire 32 Z io_DMEMWriteData $end
 $var wire 1 ] CPU $end
 $var wire 32 _ io_regsDeviceWriteData $end
 $var wire 5 a io_regsDeviceWriteAddress $end
 $var wire 1 i clock $end
 $var wire 32 l io_currentPC $end
 $var wire 5 m io_regsAddress $end
 $var wire 1 u io_DMEMWriteEnable $end
 $var wire 32 v io_memDeviceWriteAddress $end
 $var wire 32 ~ io_IMEMWriteData $end
 $var wire 32 "! io_memDeviceWriteData $end
 $var wire 32 ") io_DMEMReadData $end
 $var wire 1 ", reset $end
 $var wire 1 "2 io_setup $end
 $var wire 1 "7 io_memDeviceWriteEnable $end
 $var wire 32 "A io_regsWriteData $end
  $scope module CPU.MEM $end
  $upscope $end
  $scope module CPU.ID.registers $end
  $upscope $end
  $scope module CPU.IF $end
  $upscope $end
  $scope module CPU.IF.IMEM $end
  $upscope $end
  $scope module CPU.MEM.DMEM $end
  $upscope $end
  $scope module CPU $end
   $var wire 1 2 testHarness_regUpdates_writeEnable $end
   $var wire 1 > ID $end
   $var wire 1 D testHarness_memUpdates_writeEnable $end
   $var wire 32 K testHarness_regUpdates_writeData $end
   $var wire 5 L testHarness_regUpdates_writeAddress $end
   $var wire 5 M testHarness_setupSignals_registerSignals_readAddress $end
   $var wire 32 P testHarness_testReadouts_registerRead $end
   $var wire 32 T testHarness_currentPC $end
   $var wire 1 W IF $end
   $var wire 32 [ testHarness_memUpdates_writeAddress $end
   $var wire 1 ^ testHarness_setupSignals_DMEMsignals_setup $end
   $var wire 32 d testHarness_testReadouts_DMEMread $end
   $var wire 32 f testHarness_setupSignals_DMEMsignals_dataIn $end
   $var wire 1 g testHarness_setupSignals_IMEMsignals_setup $end
   $var wire 1 q clock $end
   $var wire 32 s testHarness_setupSignals_DMEMsignals_dataAddress $end
   $var wire 1 x testHarness_setupSignals_registerSignals_setup $end
   $var wire 1 { MEM $end
   $var wire 1 "" testHarness_setupSignals_registerSignals_writeEnable $end
   $var wire 32 "6 testHarness_memUpdates_writeData $end
   $var wire 32 "= testHarness_setupSignals_registerSignals_writeData $end
   $var wire 1 "@ reset $end
   $var wire 1 "B testHarness_setupSignals_DMEMsignals_writeEnable $end
    $scope module MEM $end
     $var wire 1 8 DMEM $end
     $var wire 32 ; testHarness_testUpdates_writeAddress $end
     $var wire 32 U testHarness_DMEMsetup_dataAddress $end
     $var wire 1 p testHarness_testUpdates_writeEnable $end
     $var wire 1 z testHarness_DMEMsetup_writeEnable $end
     $var wire 32 } testHarness_DMEMpeek $end
     $var wire 1 "* testHarness_DMEMsetup_setup $end
     $var wire 32 "0 testHarness_testUpdates_writeData $end
     $var wire 1 "4 clock $end
     $var wire 32 "> testHarness_DMEMsetup_dataIn $end
      $scope module DMEM $end
       $var wire 32 & testHarness_testUpdates_writeData $end
       $var wire 1 ) _GEN_6 $end
       $var wire 12 - data__T_24_addr_pipe_0 $end
       $var wire 1 6 testHarness_testUpdates_writeEnable $end
       $var wire 32 : testHarness_setup_dataAddress $end
       $var wire 32 ? testHarness_testUpdates_writeAddress $end
       $var wire 32 F addressSource $end
       $var wire 32 J data $end
       $var wire 1 r testHarness_setup_writeEnable $end
       $var wire 1 t testHarness_setup_setup $end
       $var wire 1 "& clock $end
       $var wire 32 "+ testHarness_setup_dataIn $end
       $var wire 32 "9 io_dataOut $end
        $scope module data $end
          $scope module _T_26 $end
           $var wire 1 ! clk $end
           $var wire 12 B addr $end
           $var wire 32 G pipeline_data_0 $end
           $var wire 1 \ pipeline_valid_0 $end
           $var wire 32 c data $end
           $var wire 1 "# en $end
           $var wire 12 "' pipeline_addr_0 $end
           $var wire 1 "- valid $end
           $var wire 1 "< mask $end
          $upscope $end
          $scope module _T_24 $end
           $var wire 32 5 data $end
           $var wire 1 h clk $end
           $var wire 1 "% en $end
           $var wire 12 "( addr $end
          $upscope $end
        $upscope $end
      $upscope $end
    $upscope $end
    $scope module ID $end
     $var wire 1 " testHarness_registerSetup_writeEnable $end
     $var wire 32 = testHarness_registerPeek $end
     $var wire 1 C testHarness_testUpdates_writeEnable $end
     $var wire 32 H testHarness_registerSetup_writeData $end
     $var wire 5 N testHarness_testUpdates_writeAddress $end
     $var wire 5 k testHarness_registerSetup_readAddress $end
     $var wire 1 o registers $end
     $var wire 1 "3 testHarness_registerSetup_setup $end
     $var wire 32 "5 testHarness_testUpdates_writeData $end
     $var wire 1 ": clock $end
      $scope module registers $end
       $var wire 1 % testHarness_testUpdates_writeEnable $end
       $var wire 1 ' testHarness_setup_setup $end
       $var wire 32 , testHarness_testUpdates_writeData $end
       $var wire 5 . readAddress1 $end
       $var wire 1 0 clock $end
       $var wire 32 1 io_readData1 $end
       $var wire 32 3 registerFile $end
       $var wire 1 7 testHarness_setup_writeEnable $end
       $var wire 1 @ writeEnable $end
       $var wire 5 O testHarness_testUpdates_writeAddress $end
       $var wire 32 ` testHarness_setup_writeData $end
       $var wire 5 y testHarness_setup_readAddress $end
        $scope module registerFile $end
          $scope module _T_33 $end
           $var wire 1 # en $end
           $var wire 1 ( pipeline_valid_0 $end
           $var wire 1 / clk $end
           $var wire 5 S pipeline_addr_0 $end
           $var wire 1 V mask $end
           $var wire 1 e valid $end
           $var wire 5 w addr $end
           $var wire 32 "$ pipeline_data_0 $end
           $var wire 32 "8 data $end
          $upscope $end
          $scope module _T_41 $end
           $var wire 32 A data $end
           $var wire 1 R en $end
           $var wire 1 n clk $end
           $var wire 5 "1 addr $end
          $upscope $end
          $scope module _T_38 $end
           $var wire 1 E clk $end
           $var wire 1 b en $end
           $var wire 5 j addr $end
           $var wire 32 ". data $end
          $upscope $end
        $upscope $end
      $upscope $end
    $upscope $end
    $scope module IF $end
     $var wire 1 $ testHarness_IMEMsetup_setup $end
     $var wire 1 9 IMEM $end
     $var wire 32 Q PC $end
     $var wire 1 X clock $end
     $var wire 32 Y testHarness_PC $end
     $var wire 1 | reset $end
     $var wire 32 "? _GEN_0 $end
      $scope module IMEM $end
       $var wire 32 "/ testHarness_requestedAddress $end
       $var wire 32 "; io_instructionAddress $end
      $upscope $end
    $upscope $end
  $upscope $end
  $scope module CPU.ID $end
  $upscope $end
$upscope $end
$enddefinitions $end
$dumpvars
b00000000000000000000000000000000 Y
0C
0X
0""
1"<
0"7
0o
b00000000000000000000000000000000 ">
0R
b00000000000000000000000000000000 "8
b00000000000000000000000000000000 l
b00000000000000000000000000000000 :
b00000000000000000000000000000000 Q
b00000000000000000000000000000000 }
0g
b00000000000000000000000000000000 ".
b00000000000000000000000000000000 K
b00000000000000000000000000000000 `
b000000000000 "(
0"@
0D
0/
0"#
0x
0":
b00000 S
0z
b00000000000000000000000000000000 s
0]
1)
0r
b00000 j
0@
b00000000000000000000000000000000 A
0W
b00000000000000000000000000000000 ;
b00000 O
0%
b000000000000 -
b00000000000000000000000000000000 "=
b00000000000000000000000000000000 Z
0p
b00000000000000000000000000000000 T
0>
0"2
b00000000000000000000000000000000 ?
06
0!
b00000 .
b00000000000000000000000000000000 "9
0"4
b00000 y
b00000000000000000000000000000000 P
b00000000000000000000000000000000 3
0{
b00000000000000000000000000000000 "5
b00000000000000000000000000000000 J
b000000000000 "'
b00000000000000000000000000000000 "/
0"*
0b
0E
00
0(
b00000000000000000000000000000000 "+
b00000000000000000000000000000000 _
0u
1V
b00000000000000000000000000000000 [
b00000000000000000000000000000000 "6
b00000000000000000000000000000000 "!
0q
0i
b00000000000000000000000000000000 U
0"3
b00000 a
b00000 L
07
0"
09
0"-
0e
b00000000000000000000000000000000 f
b00000 "1
b00000000000000000000000000000000 I
b00000000000000000000000000000000 4
0|
b00000000000000000000000000000000 "0
b00000000000000000000000000000000 d
0"B
b00000000000000000000000000000000 G
b00000000000000000000000000000000 "A
b00000000000000000000000000000000 "$
b00000000000000000000000000000000 ,
b00000 M
0t
b00000000000000000000000000000000 ";
b00000000000000000000000000000000 &
0n
0<
0'
b00000000000000000000000000000000 =
b00000000000000000000000000000000 "?
b00000 w
08
0",
0#
02
b000000000000 B
b00000000000000000000000000000000 5
b00000000000000000000000000000000 ~
0h
b00000 m
b00000000000000000000000000000000 c
b00000000000000000000000000000000 ")
b00000000000000000000000000000000 F
b00000000000000000000000000000000 1
0\
b00000000000000000000000000000000 H
0"&
b00000000000000000000000000000000 +
0*
0^
b00000 k
b00000 N
0$
1"%
b00000000000000000000000000000000 v
$end
#0
1"@
1|
1",
#1
1n
1"&
1h
1i
1"4
1!
1X
10
1E
1q
1/
1":
#6
0"&
0E
0q
0X
0/
00
0n
0i
0"4
0h
0!
0":
#11
1n
1"&
1h
1i
1"4
1!
1X
10
1E
1q
1/
1":
#16
0"&
0E
0q
0X
0/
00
0n
0i
0"4
0h
0!
0":
#21
1n
1"&
1h
1i
1"4
1!
1X
10
1E
1q
1/
1":
#26
0"&
0E
0q
0X
0/
00
0n
0i
0"4
0h
0!
0":
#31
1n
1"&
1h
1i
1"4
1!
1X
10
1E
1q
1/
1":
#36
0"&
0E
0q
0X
0/
00
0n
0i
0"4
0h
0!
0":
#41
1n
1"&
1h
1i
1"4
1!
1X
10
1E
1q
1/
1":
#46
1x
1"*
0E
0q
0X
0/
00
1"3
0n
0",
0"4
0h
1"2
1^
0!
1$
b00000000000100001000000000010011 ~
1t
1'
0"&
0|
0i
0"@
0":
1g
#51
1n
1"&
1h
1i
1"4
1!
1X
10
1E
1q
1/
1":
#56
0E
0q
b00000000001000001000000000010011 ~
0X
0/
00
0n
0"4
0h
0!
0"&
0i
0":
b00000000000000000000000000000100 4
#61
1n
1"&
1h
1i
1"4
1!
1X
10
1E
1q
1/
1":
#66
0E
0q
0X
0/
00
0n
b00000000000000000000000000001000 4
0"4
0h
0!
0"&
0i
0":
b00000000001100001000000000010011 ~
#71
1n
1"&
1h
1i
1"4
1!
1X
10
1E
1q
1/
1":
#76
0E
0q
0X
0/
00
b00000000000000000000000000001100 4
0n
0"4
0h
0!
0"&
0i
b00000000011100001000000000010011 ~
0":
#81
1n
1"&
1h
1i
1"4
1!
1X
10
1E
1q
1/
1":
#86
0E
0q
0X
0/
00
0n
b00000000111000001000000000010011 ~
0"4
0h
b00000000000000000000000000010000 4
0!
0"&
0i
0":
#91
1n
1"&
1h
1i
1"4
1!
1X
10
1E
1q
1/
1":
#96
0E
0q
0X
0/
00
0n
b00000000000000000000000000010100 4
0"4
0h
0!
0"&
0i
b00000001110000001000000000010011 ~
0":
#101
1n
1"&
1h
1i
1"4
1!
1X
10
1E
1q
1/
1":
#106
0E
0q
0X
0/
00
0n
0"4
0h
0!
0"&
b00000011100000001000000000010011 ~
0i
b00000000000000000000000000011000 4
0":
#111
1n
1"&
1h
1i
1"4
1!
1X
10
1E
1q
1/
1":
#116
b00000000000000000000000000011100 4
0E
0q
0X
0/
00
0n
0"4
0h
0!
0"&
0i
b00000000000100001000111110010011 ~
0":
#121
1n
1"&
1h
1i
1"4
1!
1X
10
1E
1q
1/
1":
#126
0E
0q
0X
0/
00
0n
b00000000000000000000000000100000 4
0"4
0h
0!
b00000000001000001000111110010011 ~
0"&
0i
0":
#131
1n
1"&
1h
1i
1"4
1!
1X
10
1E
1q
1/
1":
#136
0E
0q
0X
0/
00
0n
0"4
0h
0!
b00000000000000000000000000100100 4
b00000000001100001000111110010011 ~
0"&
0i
0":
#141
1n
1"&
1h
1i
1"4
1!
1X
10
1E
1q
1/
1":
#146
0E
0q
0X
0/
00
0n
0"4
0h
0!
0"&
b00000000000000000000000000101000 4
0i
b00000000011100001000111110010011 ~
0":
#151
1n
1"&
1h
1i
1"4
1!
1X
10
1E
1q
1/
1":
#156
0E
0q
0X
0/
00
0n
0"4
0h
0!
0"&
0i
b00000000000000000000000000101100 4
0":
b00000000111000001000111110010011 ~
#161
1n
1"&
1h
1i
1"4
1!
1X
10
1E
1q
1/
1":
#166
0E
0q
0X
0/
00
0n
0"4
0h
0!
b00000001110000001000111110010011 ~
0"&
0i
0":
b00000000000000000000000000110000 4
#171
1n
1"&
1h
1i
1"4
1!
1X
10
1E
1q
1/
1":
#176
0E
0q
b00000011100000001000111110010011 ~
0X
0/
00
0n
0"4
0h
0!
0"&
0i
0":
b00000000000000000000000000110100 4
#181
1n
1"&
1h
1i
1"4
1!
1X
10
1E
1q
1/
1":
#186
0E
0q
0X
0/
00
0n
0"4
0h
0!
b00000000000000000000000000111000 4
0"&
0i
b00001000010100001000111110010011 ~
0":
#191
1n
1"&
1h
1i
1"4
1!
1X
10
1E
1q
1/
1":
#196
0E
0q
0X
0/
00
0n
b00000000000000000000000000111100 4
0"4
0h
0!
0"&
b00010000001000001000111110010011 ~
0i
0":
#201
1n
1"&
1h
1i
1"4
1!
1X
10
1E
1q
1/
1":
#206
0E
0q
0X
0/
00
b00000000000000000000000001000000 4
0n
0"4
0h
0!
0"&
0i
b00011111111100001000111110010011 ~
0":
#211
1n
1"&
1h
1i
1"4
1!
1X
10
1E
1q
1/
1":
#216
0E
0q
0X
0/
00
0n
0"4
0h
0!
0"&
0i
b11111111111100001000111110010011 ~
b00000000000000000000000001000100 4
0":
#221
1n
1"&
1h
1i
1"4
1!
1X
10
1E
1q
1/
1":
#226
0E
0q
0X
0/
00
0n
0"4
0h
b11111111110100001000111110010011 ~
0!
0"&
b00000000000000000000000001001000 4
0i
0":
#231
1n
1"&
1h
1i
1"4
1!
1X
10
1E
1q
1/
1":
#236
0E
0q
0X
0/
00
0n
b00000000000000000000000001001100 4
0"4
0h
0!
0"&
0i
b11111111011100001000111110010011 ~
0":
#241
1n
1"&
1h
1i
1"4
1!
1X
10
1E
1q
1/
1":
#246
0E
0q
0X
0/
00
0n
0"4
0h
0!
0"&
b00000000000000000000000001010000 4
0i
0":
b11111001111000001000111110010011 ~
#251
1n
1"&
1h
1i
1"4
1!
1X
10
1E
1q
1/
1":
#256
0E
0q
0X
0/
00
0n
0"4
0h
0!
0"&
0i
b00000000000000000000000001010100 4
0":
b11110001100100001000111110010011 ~
#261
1n
1"&
1h
1i
1"4
1!
1X
10
1E
1q
1/
1":
#266
0E
0q
0X
0/
00
b00000000000000000000000001011000 4
0n
b11100000001000001000111110010011 ~
0"4
0h
0!
0"&
0i
0":
#271
1n
1"&
1h
1i
1"4
1!
1X
10
1E
1q
1/
1":
#276
0E
0q
0X
0/
00
0n
0"4
0h
0!
b00000000000000000000000001011100 4
0"&
0i
b00000000000100000000111100010011 ~
0":
#281
1n
1"&
1h
1i
1"4
1!
1X
10
1E
1q
1/
1":
#286
0E
0q
b00000000000000000000000001100000 4
0X
0/
00
0n
0"4
0h
0!
0"&
b00000000001011110000111100010011 ~
0i
0":
#291
1n
1"&
1h
1i
1"4
1!
1X
10
1E
1q
1/
1":
#296
0E
0q
0X
0/
00
0n
0"4
0h
b00000000000000000000000001100100 4
0!
0"&
b00000000001111110000111100010011 ~
0i
0":
#301
1n
1"&
1h
1i
1"4
1!
1X
10
1E
1q
1/
1":
#306
0E
0q
0X
0/
00
0n
0"4
0h
b00000000011111110000111100010011 ~
b00000000000000000000000001101000 4
0!
0"&
0i
0":
#311
1n
1"&
1h
1i
1"4
1!
1X
10
1E
1q
1/
1":
#316
0E
0q
0X
0/
00
0n
0"4
0h
0!
0"&
b00000000111011110000111100010011 ~
0i
b00000000000000000000000001101100 4
0":
#321
1n
1"&
1h
1i
1"4
1!
1X
10
1E
1q
1/
1":
#326
0E
0q
0X
0/
00
0n
0"4
0h
0!
0"&
b00000000000000000000000001110000 4
b00000001110011110000111100010011 ~
0i
0":
#331
1n
1"&
1h
1i
1"4
1!
1X
10
1E
1q
1/
1":
#336
0E
0q
0X
0/
00
0n
0"4
0h
0!
0"&
0i
0":
b00000011100011110000111100010011 ~
b00000000000000000000000001110100 4
#341
1n
1"&
1h
1i
1"4
1!
1X
10
1E
1q
1/
1":
#346
0E
0q
0X
0/
00
b00000000000000000000000001111000 4
0n
b00001000010111110000111100010011 ~
0"4
0h
0!
0"&
0i
0":
#351
1n
1"&
1h
1i
1"4
1!
1X
10
1E
1q
1/
1":
#356
0E
0q
0X
0/
00
0n
0"4
0h
b00010000001011110000111100010011 ~
0!
0"&
0i
0":
b00000000000000000000000001111100 4
#361
1n
1"&
1h
1i
1"4
1!
1X
10
1E
1q
1/
1":
#366
0E
0q
0X
0/
00
b00011111111111110000111100010011 ~
0n
0"4
0h
0!
0"&
0i
0":
b00000000000000000000000010000000 4
#371
1n
1"&
1h
1i
1"4
1!
1X
10
1E
1q
1/
1":
#376
b11111111111111110000111100010011 ~
0E
0q
0X
0/
00
0n
b00000000000000000000000010000100 4
0"4
0h
0!
0"&
0i
0":
#381
1n
1"&
1h
1i
1"4
1!
1X
10
1E
1q
1/
1":
#386
0E
0q
0X
0/
00
0n
0"4
0h
0!
b11111111110111110000111100010011 ~
0"&
0i
0":
b00000000000000000000000010001000 4
#391
1n
1"&
1h
1i
1"4
1!
1X
10
1E
1q
1/
1":
#396
0E
0q
0X
0/
00
0n
0"4
0h
0!
0"&
b00000000000000000000000010001100 4
b11111111011111110000111100010011 ~
0i
0":
#401
1n
1"&
1h
1i
1"4
1!
1X
10
1E
1q
1/
1":
#406
0E
0q
0X
0/
00
0n
0"4
0h
b00000000000000000000000010010000 4
0!
0"&
0i
0":
b11111001111011110000111100010011 ~
#411
1n
1"&
1h
1i
1"4
1!
1X
10
1E
1q
1/
1":
#416
0E
0q
0X
0/
00
0n
0"4
0h
0!
0"&
b11110001100111110000111100010011 ~
0i
0":
b00000000000000000000000010010100 4
#421
1n
1"&
1h
1i
1"4
1!
1X
10
1E
1q
1/
1":
#426
0E
0q
0X
0/
00
0n
0"4
0h
b00000000000000000000000010011000 4
0!
0"&
0i
0":
b11100000001011110000111100010011 ~
#431
1n
1"&
1h
1i
1"4
1!
1X
10
1E
1q
1/
1":
#436
0E
0q
0X
0/
00
0n
0"4
0h
0!
0"&
b00000000000000000000000000010011 ~
0i
b00000000000000000000000010011100 4
0":
#441
1n
1"&
1h
1i
1"4
1!
1X
10
1E
1q
1/
1":
#446
0E
0q
b01110 m
0/
0h
1""
1"
b01110 k
b00000000000000000000000000000000 ~
0"&
b01110 w
1%
0i
b00000000000000000000111111111100 4
b01110 L
b01110 M
0":
b01110 N
0X
00
b01110 .
1b
0n
12
0"4
b01110 y
b01110 O
b01110 j
0!
1#
1e
1*
1@
b01110 a
17
1<
1C
#451
b01110 S
1h
1i
1(
1q
1n
1"&
1"4
1!
1X
10
1E
1/
1":
#456
0E
0q
b01010 M
0X
0/
00
b01010 k
0n
b01010 y
0"4
0h
b01010 a
0!
b01010 L
b01010 N
0"&
b01010 O
b01010 w
0i
b01010 m
0":
b01010 .
b01010 j
#461
1n
1"&
1h
1i
1"4
b01010 S
1!
1X
10
1E
1q
1/
1":
#466
0E
0q
0X
0/
00
b10001 j
0n
b10001 L
b10001 k
0"4
0h
b10001 w
b10001 y
0!
b10001 M
b10001 m
b10001 .
0"&
b10001 a
0i
b10001 N
0":
b10001 O
#471
1n
1"&
1h
1i
1"4
1!
1X
10
1E
1q
b10001 S
1/
1":
#476
0E
0q
b00000 m
0X
0/
00
b00000 a
0n
b00000 w
0b
0"4
0h
0!
0#
b00000 M
0"&
0e
b00000 k
b00000 O
b00000 L
0i
b00000 j
0":
b00000 y
b00000 .
b00000 N
#481
1h
1i
1q
b00000 S
1n
1"&
1"4
1!
1X
10
1E
1/
1":
0(
#486
0E
0q
0X
0/
00
b00100 N
0n
b00100 y
b00100 w
1b
b00100 j
0"4
0h
b00100 k
0!
b00100 a
b00100 .
b00100 O
1#
0"&
1e
b00100 m
0i
0":
b00100 L
b00100 M
#491
1h
1i
1(
1q
b00100 S
1n
1"&
1"4
1!
1X
10
1E
1/
1":
#496
b11000 w
0E
0q
0X
0/
00
b11000 a
0n
b11000 y
b11000 O
0"4
0h
b11000 j
0!
b11000 m
b11000 N
b11000 M
0"&
b11000 .
0i
b11000 k
b11000 L
0":
#501
1n
1"&
1h
b11000 S
1i
1"4
1!
1X
10
1E
1q
1/
1":
#506
b00110 L
0E
0q
b00110 M
0X
0/
00
0n
0"4
0h
b00110 m
b00110 O
b00110 w
b00110 .
0!
b00110 N
0"&
b00110 k
0i
b00110 a
b00110 j
0":
b00110 y
#511
1n
1"&
1h
1i
1"4
1!
1X
10
b00110 S
1E
1q
1/
1":
#516
b10100 M
0E
0q
b10100 k
0X
0/
00
b10100 j
0n
b10100 a
0"4
0h
b10100 w
b10100 m
0!
0"&
b10100 O
b10100 L
b10100 .
0i
b10100 N
0":
b10100 y
#521
1n
1"&
1h
1i
b10100 S
1"4
1!
1X
10
1E
1q
1/
1":
#526
b00111 w
0E
0q
0X
0/
00
0n
0"4
0h
b00111 L
0!
b00111 N
b00111 .
0"&
b00111 y
0i
b00111 M
b00111 O
b00111 a
b00111 m
0":
b00111 k
b00111 j
#531
1n
1"&
1h
1i
1"4
1!
1X
10
1E
1q
1/
b00111 S
1":
#536
0E
0q
0X
0/
00
0n
b00001 M
0"4
0h
0!
b00001 y
b00001 L
b00001 O
0"&
b00001 a
0i
b00001 .
b00001 j
b00001 k
0":
b00001 m
b00001 N
b00001 w
#541
1n
1"&
1h
1i
1"4
1!
1X
10
1E
1q
1/
b00001 S
1":
#546
0E
0q
0X
0/
00
0n
b11011 y
b11011 L
0"4
0h
0!
b11011 m
0"&
b11011 j
0i
b11011 N
b11011 a
b11011 .
b11011 w
0":
b11011 k
b11011 O
b11011 M
#551
1n
1"&
1h
1i
1"4
1!
1X
10
1E
1q
b11011 S
1/
1":
#556
0E
0q
b01101 m
0X
0/
00
b01101 N
0n
b01101 L
0"4
0h
0!
b01101 a
b01101 M
b01101 .
b01101 j
0"&
b01101 O
b01101 w
b01101 k
0i
0":
b01101 y
#561
1n
1"&
1h
1i
1"4
1!
1X
10
1E
1q
1/
b01101 S
1":
#566
0E
0q
b01011 M
0X
0/
00
b01011 a
0n
b01011 .
0"4
0h
b01011 L
b01011 m
b01011 O
0!
b01011 j
0"&
b01011 y
b01011 w
0i
b01011 N
b01011 k
0":
#571
1n
1"&
1h
1i
1"4
1!
1X
10
1E
b01011 S
1q
1/
1":
#576
b01100 j
0E
0q
0X
0/
00
0n
b01100 N
b01100 k
b01100 O
b01100 w
0"4
0h
b01100 a
b01100 .
0!
b01100 L
0"&
b01100 M
0i
b01100 m
0":
b01100 y
#581
1n
1"&
1h
1i
1"4
1!
1X
10
1E
1q
b01100 S
1/
1":
#586
b00011 a
0E
0q
0X
0/
00
0n
b00011 N
b00011 y
0"4
0h
0!
b00011 M
0"&
b00011 m
b00011 L
0i
b00011 k
b00011 j
0":
b00011 O
b00011 w
b00011 .
#591
1n
1"&
1h
1i
1"4
1!
1X
10
b00011 S
1E
1q
1/
1":
#596
0E
0q
0X
0/
00
b00101 N
0n
b00101 L
b00101 a
0"4
0h
0!
b00101 O
0"&
b00101 y
b00101 m
b00101 .
0i
b00101 w
b00101 M
0":
b00101 k
b00101 j
#601
1n
1"&
1h
1i
1"4
1!
1X
10
1E
1q
b00101 S
1/
1":
#606
b10011 .
0E
0q
0X
0/
00
0n
b10011 O
b10011 j
0"4
0h
b10011 k
b10011 M
b10011 a
0!
b10011 L
0"&
b10011 w
b10011 m
b10011 y
0i
b10011 N
0":
#611
1n
b10011 S
1"&
1h
1i
1"4
1!
1X
10
1E
1q
1/
1":
#616
0E
0q
0X
0/
00
b10111 y
0n
0"4
0h
b10111 .
0!
b10111 m
0"&
b10111 k
b10111 a
0i
b10111 O
b10111 w
b10111 L
b10111 j
b10111 M
0":
b10111 N
#621
1n
1"&
1h
b10111 S
1i
1"4
1!
1X
10
1E
1q
1/
1":
#626
b01111 L
0E
0q
0X
0/
00
b01111 w
0n
b01111 y
b01111 a
0"4
0h
0!
b01111 N
b01111 .
0"&
b01111 O
0i
b01111 m
0":
b01111 M
b01111 k
b01111 j
#631
1n
1"&
1h
1i
b01111 S
1"4
1!
1X
10
1E
1q
1/
1":
#636
b01000 O
0E
0q
0X
0/
00
b01000 a
0n
b01000 j
b01000 m
0"4
0h
b01000 y
b01000 N
0!
b01000 w
0"&
b01000 M
b01000 .
0i
b01000 L
0":
b01000 k
#641
1n
1"&
1h
1i
b01000 S
1"4
1!
1X
10
1E
1q
1/
1":
#646
0E
0q
b01001 M
0X
0/
00
0n
b01001 L
0"4
0h
b01001 .
0!
b01001 O
b01001 k
b01001 j
0"&
b01001 a
0i
b01001 m
b01001 w
0":
b01001 N
b01001 y
#651
b01001 S
1n
1"&
1h
1i
1"4
1!
1X
10
1E
1q
1/
1":
#656
0E
0q
b10101 O
0X
0/
00
b10101 M
0n
b10101 a
b10101 L
b10101 w
0"4
0h
0!
b10101 k
b10101 .
0"&
b10101 m
b10101 N
0i
b10101 y
b10101 j
0":
#661
1n
1"&
1h
1i
1"4
1!
1X
10
b10101 S
1E
1q
1/
1":
#666
b11100 y
0E
0q
0X
0/
00
b11100 m
0n
0"4
0h
b11100 a
0!
b11100 k
b11100 .
0"&
b11100 O
b11100 j
0i
b11100 w
b11100 L
b11100 M
0":
b11100 N
#671
b11100 S
1n
1"&
1h
1i
1"4
1!
1X
10
1E
1q
1/
1":
#676
b10000 y
0E
0q
b10000 m
0X
0/
00
b10000 .
0n
b10000 a
b10000 w
0"4
0h
b10000 L
0!
b10000 N
0"&
b10000 k
b10000 j
0i
b10000 O
0":
b10000 M
#681
1n
1"&
1h
1i
1"4
1!
1X
10
b10000 S
1E
1q
1/
1":
#686
b10010 N
0E
0q
b10010 w
0X
0/
00
b10010 a
0n
b10010 m
0"4
0h
b10010 L
0!
b10010 j
0"&
b10010 M
b10010 .
0i
b10010 O
0":
b10010 y
b10010 k
#691
1n
1"&
1h
1i
1"4
1!
1X
10
1E
1q
1/
b10010 S
1":
#696
b11010 a
0E
0q
0X
0/
00
0n
b11010 O
b11010 M
0"4
0h
b11010 L
b11010 k
b11010 j
0!
b11010 N
b11010 w
0"&
b11010 y
0i
b11010 m
0":
b11010 .
#701
1n
1"&
b11010 S
1h
1i
1"4
1!
1X
10
1E
1q
1/
1":
#706
0E
0q
0X
0/
00
b11111 y
0n
b11111 .
0"4
0h
0!
b11111 O
b11111 k
b11111 L
0"&
b11111 M
b11111 N
b11111 a
b11111 j
0i
b11111 w
0":
b11111 m
#711
1n
1"&
1h
1i
b11111 S
1"4
1!
1X
10
1E
1q
1/
1":
#716
b00000000000000000000010000000000 "A
0E
0q
0/
b00010 j
b00000000000000000000010000000000 _
b00010 .
0h
b00010 y
b00000000000000000000010000000000 `
0"&
b00010 a
b00000000000000000000010000000000 ,
b00010 m
0i
b00000000000000000000010000000000 "=
b00010 M
0":
b00010 w
0X
00
0n
b00010 L
b00010 k
0"4
b00000000000000000000010000000000 "5
0!
b00010 N
b00000000000000000000010000000000 H
b00000000000000000000010000000000 K
b00000000000000000000010000000000 "8
b00010 O
#721
1h
b00000000000000000000010000000000 P
1i
b00010 S
b00000000000000000000010000000000 +
1q
b00000000000000000000010000000000 =
1n
1"&
1"4
1!
1X
10
b00000000000000000000010000000000 ".
b00000000000000000000010000000000 "$
b00000000000000000000010000000000 1
1E
1/
1":
#726
b00000000000000000000000000000000 K
0E
0q
0/
b11101 k
0h
b11101 m
b11101 j
b00000000000000000000000000000000 1
0"&
b00000000000000000000000000000000 "5
b00000000000000000000000000000000 ".
0i
b00000000000000000000000000000000 "=
b00000000000000000000000000000000 "8
0":
b00000000000000000000000000000000 ,
b11101 w
b00000000000000000000000000000000 "A
0X
00
b00000000000000000000000000000000 H
b00000000000000000000000000000000 `
0n
b11101 N
b00000000000000000000000000000000 P
0"4
b11101 L
0!
b11101 a
b11101 y
b11101 O
b00000000000000000000000000000000 =
b11101 .
b00000000000000000000000000000000 +
b00000000000000000000000000000000 _
b11101 M
#731
1h
b00000000000000000000000000000000 "$
1i
1q
1n
b11101 S
1"&
1"4
1!
1X
10
1E
1/
1":
#736
b11001 N
b11001 y
0E
0q
b11001 O
0X
0/
00
b11001 .
0n
0"4
0h
0!
b11001 a
b11001 j
0"&
b11001 w
b11001 k
0i
b11001 L
0":
b11001 M
b11001 m
#741
1n
1"&
1h
1i
1"4
1!
1X
10
b11001 S
1E
1q
1/
1":
#746
0E
0q
0X
0/
00
0n
b10110 w
0"4
0h
0!
b10110 M
b10110 a
b10110 .
b10110 N
b10110 j
0"&
b10110 L
b10110 k
b10110 y
0i
b10110 O
b10110 m
0":
#751
1n
b10110 S
1"&
1h
1i
1"4
1!
1X
10
1E
1q
1/
1":
#756
0E
0q
0X
0/
00
b11110 y
0n
b11110 O
b11110 .
b11110 j
b11110 N
0"4
0h
b11110 M
0!
0"&
0i
b11110 k
b11110 L
0":
b11110 a
b11110 m
b11110 w
#761
1n
1"&
1h
1i
1"4
1!
1X
b11110 S
10
1E
1q
1/
1":
#766
0E
0q
b00000 m
b00000 w
0/
0b
0*
0C
02
0h
0#
0"&
0e
b00000 k
b00000 O
b00000 L
0i
0""
07
0":
b00000 y
b00000 .
b00000 N
0%
0@
0X
00
b00000 a
0n
0"4
0<
0!
b00000 M
b00000 j
0"
#771
1h
1i
1q
b00000 S
1n
1"&
1"4
1!
1X
10
1E
1/
1":
0(
#776
0"&
0E
0q
0X
0/
00
0n
0i
0"4
0h
0!
0":
#781
1n
1"&
1h
1i
1"4
1!
1X
10
1E
1q
1/
1":
#786
0"&
0E
0q
0X
0/
00
0n
0i
0"4
0h
0!
0":
#791
1n
1"&
1h
1i
1"4
1!
1X
10
1E
1q
1/
1":
