waveforms/addi.s.vcd
$date
2021-12-09T13:17+0000
$end
$version
0.2
$end
$comment

$end
$timescale 1ns  $end
$scope module Tile $end
 $var wire 1 * io_regsWriteEnable $end
 $var wire 32 + io_regsReadData $end
 $var wire 32 4 io_IMEMAddress $end
 $var wire 1 < io_regsDeviceWriteEnable $end
 $var wire 32 I io_DMEMAddress $end
 $var wire 32 Z io_DMEMWriteData $end
 $var wire 1 ] CPU $end
 $var wire 32 _ io_regsDeviceWriteData $end
 $var wire 5 a io_regsDeviceWriteAddress $end
 $var wire 1 i clock $end
 $var wire 32 l io_currentPC $end
 $var wire 5 m io_regsAddress $end
 $var wire 1 u io_DMEMWriteEnable $end
 $var wire 32 v io_memDeviceWriteAddress $end
 $var wire 32 ~ io_IMEMWriteData $end
 $var wire 32 "! io_memDeviceWriteData $end
 $var wire 32 ") io_DMEMReadData $end
 $var wire 1 ", reset $end
 $var wire 1 "2 io_setup $end
 $var wire 1 "7 io_memDeviceWriteEnable $end
 $var wire 32 "A io_regsWriteData $end
  $scope module CPU.MEM $end
  $upscope $end
  $scope module CPU.ID.registers $end
  $upscope $end
  $scope module CPU.IF $end
  $upscope $end
  $scope module CPU.IF.IMEM $end
  $upscope $end
  $scope module CPU.MEM.DMEM $end
  $upscope $end
  $scope module CPU $end
   $var wire 1 2 testHarness_regUpdates_writeEnable $end
   $var wire 1 > ID $end
   $var wire 1 D testHarness_memUpdates_writeEnable $end
   $var wire 32 K testHarness_regUpdates_writeData $end
   $var wire 5 L testHarness_regUpdates_writeAddress $end
   $var wire 5 M testHarness_setupSignals_registerSignals_readAddress $end
   $var wire 32 P testHarness_testReadouts_registerRead $end
   $var wire 32 T testHarness_currentPC $end
   $var wire 1 W IF $end
   $var wire 32 [ testHarness_memUpdates_writeAddress $end
   $var wire 1 ^ testHarness_setupSignals_DMEMsignals_setup $end
   $var wire 32 d testHarness_testReadouts_DMEMread $end
   $var wire 32 f testHarness_setupSignals_DMEMsignals_dataIn $end
   $var wire 1 g testHarness_setupSignals_IMEMsignals_setup $end
   $var wire 1 q clock $end
   $var wire 32 s testHarness_setupSignals_DMEMsignals_dataAddress $end
   $var wire 1 x testHarness_setupSignals_registerSignals_setup $end
   $var wire 1 { MEM $end
   $var wire 1 "" testHarness_setupSignals_registerSignals_writeEnable $end
   $var wire 32 "6 testHarness_memUpdates_writeData $end
   $var wire 32 "= testHarness_setupSignals_registerSignals_writeData $end
   $var wire 1 "@ reset $end
   $var wire 1 "B testHarness_setupSignals_DMEMsignals_writeEnable $end
    $scope module MEM $end
     $var wire 1 8 DMEM $end
     $var wire 32 ; testHarness_testUpdates_writeAddress $end
     $var wire 32 U testHarness_DMEMsetup_dataAddress $end
     $var wire 1 p testHarness_testUpdates_writeEnable $end
     $var wire 1 z testHarness_DMEMsetup_writeEnable $end
     $var wire 32 } testHarness_DMEMpeek $end
     $var wire 1 "* testHarness_DMEMsetup_setup $end
     $var wire 32 "0 testHarness_testUpdates_writeData $end
     $var wire 1 "4 clock $end
     $var wire 32 "> testHarness_DMEMsetup_dataIn $end
      $scope module DMEM $end
       $var wire 32 & testHarness_testUpdates_writeData $end
       $var wire 1 ) _GEN_6 $end
       $var wire 12 - data__T_24_addr_pipe_0 $end
       $var wire 1 6 testHarness_testUpdates_writeEnable $end
       $var wire 32 : testHarness_setup_dataAddress $end
       $var wire 32 ? testHarness_testUpdates_writeAddress $end
       $var wire 32 F addressSource $end
       $var wire 32 J data $end
       $var wire 1 r testHarness_setup_writeEnable $end
       $var wire 1 t testHarness_setup_setup $end
       $var wire 1 "& clock $end
       $var wire 32 "+ testHarness_setup_dataIn $end
       $var wire 32 "9 io_dataOut $end
        $scope module data $end
          $scope module _T_26 $end
           $var wire 1 ! clk $end
           $var wire 12 B addr $end
           $var wire 32 G pipeline_data_0 $end
           $var wire 1 \ pipeline_valid_0 $end
           $var wire 32 c data $end
           $var wire 1 "# en $end
           $var wire 12 "' pipeline_addr_0 $end
           $var wire 1 "- valid $end
           $var wire 1 "< mask $end
          $upscope $end
          $scope module _T_24 $end
           $var wire 32 5 data $end
           $var wire 1 h clk $end
           $var wire 1 "% en $end
           $var wire 12 "( addr $end
          $upscope $end
        $upscope $end
      $upscope $end
    $upscope $end
    $scope module ID $end
     $var wire 1 " testHarness_registerSetup_writeEnable $end
     $var wire 32 = testHarness_registerPeek $end
     $var wire 1 C testHarness_testUpdates_writeEnable $end
     $var wire 32 H testHarness_registerSetup_writeData $end
     $var wire 5 N testHarness_testUpdates_writeAddress $end
     $var wire 5 k testHarness_registerSetup_readAddress $end
     $var wire 1 o registers $end
     $var wire 1 "3 testHarness_registerSetup_setup $end
     $var wire 32 "5 testHarness_testUpdates_writeData $end
     $var wire 1 ": clock $end
      $scope module registers $end
       $var wire 1 % testHarness_testUpdates_writeEnable $end
       $var wire 1 ' testHarness_setup_setup $end
       $var wire 32 , testHarness_testUpdates_writeData $end
       $var wire 5 . readAddress1 $end
       $var wire 1 0 clock $end
       $var wire 32 1 io_readData1 $end
       $var wire 32 3 registerFile $end
       $var wire 1 7 testHarness_setup_writeEnable $end
       $var wire 1 @ writeEnable $end
       $var wire 5 O testHarness_testUpdates_writeAddress $end
       $var wire 32 ` testHarness_setup_writeData $end
       $var wire 5 y testHarness_setup_readAddress $end
        $scope module registerFile $end
          $scope module _T_33 $end
           $var wire 1 # en $end
           $var wire 1 ( pipeline_valid_0 $end
           $var wire 1 / clk $end
           $var wire 5 S pipeline_addr_0 $end
           $var wire 1 V mask $end
           $var wire 1 e valid $end
           $var wire 5 w addr $end
           $var wire 32 "$ pipeline_data_0 $end
           $var wire 32 "8 data $end
          $upscope $end
          $scope module _T_41 $end
           $var wire 32 A data $end
           $var wire 1 R en $end
           $var wire 1 n clk $end
           $var wire 5 "1 addr $end
          $upscope $end
          $scope module _T_38 $end
           $var wire 1 E clk $end
           $var wire 1 b en $end
           $var wire 5 j addr $end
           $var wire 32 ". data $end
          $upscope $end
        $upscope $end
      $upscope $end
    $upscope $end
    $scope module IF $end
     $var wire 1 $ testHarness_IMEMsetup_setup $end
     $var wire 1 9 IMEM $end
     $var wire 32 Q PC $end
     $var wire 1 X clock $end
     $var wire 32 Y testHarness_PC $end
     $var wire 1 | reset $end
     $var wire 32 "? _GEN_0 $end
      $scope module IMEM $end
       $var wire 32 "/ testHarness_requestedAddress $end
       $var wire 32 "; io_instructionAddress $end
      $upscope $end
    $upscope $end
  $upscope $end
  $scope module CPU.ID $end
  $upscope $end
$upscope $end
$enddefinitions $end
$dumpvars
b00000000000000000000000000000000 Y
0X
0"7
1"<
0""
0C
0o
b00000000000000000000000000000000 ">
0R
b00000000000000000000000000000000 "8
b00000000000000000000000000000000 l
b00000000000000000000000000000000 :
b00000000000000000000000000000000 Q
b00000000000000000000000000000000 }
0g
b00000000000000000000000000000000 ".
b00000000000000000000000000000000 `
b00000000000000000000000000000000 K
b000000000000 "(
0"@
0D
0/
0"#
0x
0":
b00000 S
0z
b00000000000000000000000000000000 s
0]
1)
0r
b00000 j
0@
b00000000000000000000000000000000 A
0W
b00000000000000000000000000000000 ;
0%
b00000 O
b000000000000 -
b00000000000000000000000000000000 "=
b00000000000000000000000000000000 Z
0p
b00000000000000000000000000000000 T
b00000000000000000000000000000000 ?
0>
0"2
06
0!
b00000 .
b00000000000000000000000000000000 "9
0"4
b00000 y
b00000000000000000000000000000000 P
b00000000000000000000000000000000 3
0{
b00000000000000000000000000000000 "5
b00000000000000000000000000000000 J
b000000000000 "'
b00000000000000000000000000000000 "/
0"*
0b
0E
00
0(
b00000000000000000000000000000000 "+
b00000000000000000000000000000000 _
1V
0u
b00000000000000000000000000000000 [
b00000000000000000000000000000000 "6
b00000000000000000000000000000000 "!
0q
0i
b00000000000000000000000000000000 U
0"3
b00000 a
b00000 L
07
0"
09
0"-
b00000000000000000000000000000000 f
0e
b00000 "1
b00000000000000000000000000000000 I
b00000000000000000000000000000000 4
0|
b00000000000000000000000000000000 "0
b00000000000000000000000000000000 d
0"B
b00000000000000000000000000000000 G
b00000000000000000000000000000000 "A
b00000000000000000000000000000000 "$
b00000000000000000000000000000000 ,
b00000 M
0t
b00000000000000000000000000000000 ";
b00000000000000000000000000000000 &
0n
0<
b00000000000000000000000000000000 =
0'
b00000000000000000000000000000000 "?
b00000 w
08
0#
0",
02
b000000000000 B
b00000000000000000000000000000000 5
b00000000000000000000000000000000 ~
0h
b00000 m
b00000000000000000000000000000000 c
b00000000000000000000000000000000 ")
b00000000000000000000000000000000 F
b00000000000000000000000000000000 1
0\
b00000000000000000000000000000000 H
0"&
0*
b00000000000000000000000000000000 +
0^
b00000 k
b00000 N
1"%
0$
b00000000000000000000000000000000 v
$end
#0
1",
1|
1"@
#1
1"4
1q
1"&
10
1":
1i
1X
1n
1!
1h
1/
1E
#6
0n
0":
0i
0E
0X
0q
0!
0/
00
0"&
0h
0"4
#11
1"4
1q
1"&
10
1":
1i
1X
1n
1!
1h
1/
1E
#16
0n
0":
0i
0E
0X
0q
0!
0/
00
0"&
0h
0"4
#21
1"4
1q
1"&
10
1":
1i
1X
1n
1!
1h
1/
1E
#26
0n
0":
0i
0E
0X
0q
0!
0/
00
0"&
0h
0"4
#31
1"4
1q
1"&
10
1":
1i
1X
1n
1!
1h
1/
1E
#36
0n
0":
0i
0E
0X
0q
0!
0/
00
0"&
0h
0"4
#41
1"4
1q
1"&
10
1":
1i
1X
1n
1!
1h
1/
1E
#46
0",
0n
1"3
0i
1^
b00000000000100001000000000010011 ~
0q
0/
00
0"&
1"2
1x
0"4
0":
0E
1"*
0X
1t
0!
0h
1g
1$
0|
1'
0"@
#51
1"4
1q
1"&
10
1":
1i
1X
1n
1!
1h
1/
1E
#56
0n
0i
0q
0/
00
0"&
b00000000000000000000000000000100 4
0"4
0":
b00000000001000001000000000010011 ~
0E
0X
0!
0h
#61
1"4
1q
1"&
10
1":
1i
1X
1n
1!
1h
1/
1E
#66
0n
0i
0q
0/
00
0"&
0"4
0":
0E
0X
b00000000001100001000000000010011 ~
0!
0h
b00000000000000000000000000001000 4
#71
1"4
1q
1"&
10
1":
1i
1X
1n
1!
1h
1/
1E
#76
0n
0i
0q
b00000000011100001000000000010011 ~
0/
00
0"&
0"4
0":
b00000000000000000000000000001100 4
0E
0X
0!
0h
#81
1"4
1q
1"&
10
1":
1i
1X
1n
1!
1h
1/
1E
#86
0n
b00000000000000000000000000010000 4
0i
0q
0/
00
0"&
0"4
0":
0E
0X
b00000000111000001000000000010011 ~
0!
0h
#91
1"4
1q
1"&
10
1":
1i
1X
1n
1!
1h
1/
1E
#96
0n
0i
0q
b00000001110000001000000000010011 ~
0/
00
0"&
0"4
0":
b00000000000000000000000000010100 4
0E
0X
0!
0h
#101
1"4
1q
1"&
10
1":
1i
1X
1n
1!
1h
1/
1E
#106
0n
0i
b00000000000000000000000000011000 4
0q
0/
00
0"&
0"4
0":
0E
0X
b00000011100000001000000000010011 ~
0!
0h
#111
1"4
1q
1"&
10
1":
1i
1X
1n
1!
1h
1/
1E
#116
0n
b00000000000000000000000000011100 4
0i
b00000000000100001000111110010011 ~
0q
0/
00
0"&
0"4
0":
0E
0X
0!
0h
#121
1"4
1q
1"&
10
1":
1i
1X
1n
1!
1h
1/
1E
#126
0n
b00000000000000000000000000100000 4
0i
0q
0/
00
0"&
0"4
0":
0E
0X
0!
0h
b00000000001000001000111110010011 ~
#131
1"4
1q
1"&
10
1":
1i
1X
1n
1!
1h
1/
1E
#136
0n
0i
0q
0/
00
0"&
0"4
0":
b00000000000000000000000000100100 4
0E
b00000000001100001000111110010011 ~
0X
0!
0h
#141
1"4
1q
1"&
10
1":
1i
1X
1n
1!
1h
1/
1E
#146
0n
b00000000011100001000111110010011 ~
0i
0q
0/
00
0"&
0"4
0":
0E
0X
0!
b00000000000000000000000000101000 4
0h
#151
1"4
1q
1"&
10
1":
1i
1X
1n
1!
1h
1/
1E
#156
0n
0i
0q
0/
00
0"&
0"4
0":
b00000000000000000000000000101100 4
0E
0X
0!
0h
b00000000111000001000111110010011 ~
#161
1"4
1q
1"&
10
1":
1i
1X
1n
1!
1h
1/
1E
#166
0n
0i
0q
b00000000000000000000000000110000 4
0/
00
0"&
0"4
0":
0E
0X
0!
0h
b00000001110000001000111110010011 ~
#171
1"4
1q
1"&
10
1":
1i
1X
1n
1!
1h
1/
1E
#176
0n
0i
0q
0/
00
0"&
b00000000000000000000000000110100 4
0"4
0":
0E
0X
b00000011100000001000111110010011 ~
0!
0h
#181
1"4
1q
1"&
10
1":
1i
1X
1n
1!
1h
1/
1E
#186
0n
0i
0q
0/
00
0"&
0"4
b00000000000000000000000000111000 4
0":
0E
0X
0!
0h
b00001000010100001000111110010011 ~
#191
1"4
1q
1"&
10
1":
1i
1X
1n
1!
1h
1/
1E
#196
0n
b00010000001000001000111110010011 ~
0i
0q
0/
00
0"&
0"4
0":
0E
0X
0!
0h
b00000000000000000000000000111100 4
#201
1"4
1q
1"&
10
1":
1i
1X
1n
1!
1h
1/
1E
#206
0n
0i
0q
0/
00
0"&
0"4
0":
b00011111111100001000111110010011 ~
0E
0X
0!
0h
b00000000000000000000000001000000 4
#211
1"4
1q
1"&
10
1":
1i
1X
1n
1!
1h
1/
1E
#216
0n
0i
0q
0/
00
0"&
b00000000000000000000000001000100 4
0"4
0":
0E
0X
b11111111111100001000111110010011 ~
0!
0h
#221
1"4
1q
1"&
10
1":
1i
1X
1n
1!
1h
1/
1E
#226
b11111111110100001000111110010011 ~
0n
0i
0q
0/
00
0"&
0"4
0":
0E
0X
0!
0h
b00000000000000000000000001001000 4
#231
1"4
1q
1"&
10
1":
1i
1X
1n
1!
1h
1/
1E
#236
0n
0i
0q
0/
00
0"&
0"4
0":
b11111111011100001000111110010011 ~
0E
0X
0!
0h
b00000000000000000000000001001100 4
#241
1"4
1q
1"&
10
1":
1i
1X
1n
1!
1h
1/
1E
#246
0n
0i
b11111001111000001000111110010011 ~
0q
0/
00
0"&
0"4
0":
0E
b00000000000000000000000001010000 4
0X
0!
0h
#251
1"4
1q
1"&
10
1":
1i
1X
1n
1!
1h
1/
1E
#256
0n
0i
0q
0/
00
0"&
0"4
b00000000000000000000000001010100 4
0":
0E
0X
0!
b11110001100100001000111110010011 ~
0h
#261
1"4
1q
1"&
10
1":
1i
1X
1n
1!
1h
1/
1E
#266
0n
b00000000000000000000000001011000 4
0i
0q
0/
00
0"&
0"4
b11100000001000001000111110010011 ~
0":
0E
0X
0!
0h
#271
1"4
1q
1"&
10
1":
1i
1X
1n
1!
1h
1/
1E
#276
0n
0i
0q
0/
00
0"&
0"4
0":
0E
0X
b00000000000100000000111100010011 ~
0!
b00000000000000000000000001011100 4
0h
#281
1"4
1q
1"&
10
1":
1i
1X
1n
1!
1h
1/
1E
#286
0n
b00000000000000000000000001100000 4
0i
0q
0/
00
0"&
0"4
0":
0E
0X
0!
0h
b00000000001011110000111100010011 ~
#291
1"4
1q
1"&
10
1":
1i
1X
1n
1!
1h
1/
1E
#296
0n
0i
b00000000001111110000111100010011 ~
0q
b00000000000000000000000001100100 4
0/
00
0"&
0"4
0":
0E
0X
0!
0h
#301
1"4
1q
1"&
10
1":
1i
1X
1n
1!
1h
1/
1E
#306
0n
0i
0q
0/
00
0"&
b00000000011111110000111100010011 ~
0"4
0":
b00000000000000000000000001101000 4
0E
0X
0!
0h
#311
1"4
1q
1"&
10
1":
1i
1X
1n
1!
1h
1/
1E
#316
0n
b00000000111011110000111100010011 ~
0i
0q
0/
00
0"&
b00000000000000000000000001101100 4
0"4
0":
0E
0X
0!
0h
#321
1"4
1q
1"&
10
1":
1i
1X
1n
1!
1h
1/
1E
#326
0n
0i
b00000001110011110000111100010011 ~
0q
0/
00
0"&
b00000000000000000000000001110000 4
0"4
0":
0E
0X
0!
0h
#331
1"4
1q
1"&
10
1":
1i
1X
1n
1!
1h
1/
1E
#336
0n
0i
0q
0/
00
0"&
0"4
b00000000000000000000000001110100 4
0":
b00000011100011110000111100010011 ~
0E
0X
0!
0h
#341
1"4
1q
1"&
10
1":
1i
1X
1n
1!
1h
1/
1E
#346
0n
0i
0q
0/
00
0"&
0"4
0":
0E
b00001000010111110000111100010011 ~
0X
0!
0h
b00000000000000000000000001111000 4
#351
1"4
1q
1"&
10
1":
1i
1X
1n
1!
1h
1/
1E
#356
0n
b00000000000000000000000001111100 4
0i
b00010000001011110000111100010011 ~
0q
0/
00
0"&
0"4
0":
0E
0X
0!
0h
#361
1"4
1q
1"&
10
1":
1i
1X
1n
1!
1h
1/
1E
#366
0n
b00011111111111110000111100010011 ~
0i
0q
0/
00
0"&
0"4
0":
b00000000000000000000000010000000 4
0E
0X
0!
0h
#371
1"4
1q
1"&
10
1":
1i
1X
1n
1!
1h
1/
1E
#376
0n
0i
0q
b00000000000000000000000010000100 4
0/
00
0"&
0"4
0":
0E
0X
0!
0h
b11111111111111110000111100010011 ~
#381
1"4
1q
1"&
10
1":
1i
1X
1n
1!
1h
1/
1E
#386
0n
0i
0q
0/
00
0"&
b11111111110111110000111100010011 ~
b00000000000000000000000010001000 4
0"4
0":
0E
0X
0!
0h
#391
1"4
1q
1"&
10
1":
1i
1X
1n
1!
1h
1/
1E
#396
0n
0i
0q
0/
00
0"&
0"4
0":
b11111111011111110000111100010011 ~
0E
0X
0!
0h
b00000000000000000000000010001100 4
#401
1"4
1q
1"&
10
1":
1i
1X
1n
1!
1h
1/
1E
#406
0n
0i
0q
0/
00
0"&
0"4
0":
b00000000000000000000000010010000 4
0E
0X
b11111001111011110000111100010011 ~
0!
0h
#411
1"4
1q
1"&
10
1":
1i
1X
1n
1!
1h
1/
1E
#416
0n
0i
0q
0/
00
0"&
b11110001100111110000111100010011 ~
0"4
0":
0E
b00000000000000000000000010010100 4
0X
0!
0h
#421
1"4
1q
1"&
10
1":
1i
1X
1n
1!
1h
1/
1E
#426
0n
0i
0q
0/
00
0"&
0"4
0":
b11100000001011110000111100010011 ~
0E
0X
0!
0h
b00000000000000000000000010011000 4
#431
1"4
1q
1"&
10
1":
1i
1X
1n
1!
1h
1/
1E
#436
0n
b00000000000000000000000000010011 ~
0i
0q
0/
00
0"&
0"4
0":
0E
0X
b00000000000000000000000010011100 4
0!
0h
#441
1"4
1q
1"&
10
1":
1i
1X
1n
1!
1h
1/
1E
#446
1""
b01110 k
b01110 w
0i
1b
b00000000000000000000000000000000 ~
b01110 a
1@
0q
0/
00
0"&
0"4
b01110 .
0":
b00000000000000000000111111111100 4
1*
b01110 M
0X
1C
0n
1%
b01110 O
b01110 m
17
b01110 L
1"
1<
1e
0E
b01110 N
1#
0!
b01110 j
0h
b01110 y
12
#451
1"&
1i
1n
1(
1!
1/
1E
1"4
1q
b01110 S
10
1":
1X
1h
#456
0n
b01010 M
0i
0q
b01010 a
0/
00
0"&
b01010 .
b01010 O
b01010 j
0"4
0":
b01010 m
b01010 y
b01010 L
0E
b01010 w
0X
0!
0h
b01010 N
b01010 k
#461
1"4
1q
1"&
10
1":
1i
1X
b01010 S
1n
1!
1h
1/
1E
#466
0n
b10001 L
b10001 w
0i
b10001 k
0q
b10001 a
0/
00
0"&
b10001 M
b10001 m
b10001 y
b10001 O
0"4
0":
b10001 N
0E
0X
b10001 .
0!
0h
b10001 j
#471
1"4
1q
1"&
10
1":
1i
1X
1n
1!
b10001 S
1h
1/
1E
#476
0n
0i
b00000 N
b00000 a
0q
0/
00
0"&
b00000 y
0#
b00000 m
0"4
b00000 M
b00000 w
b00000 j
0":
0e
0b
0E
b00000 L
0X
b00000 .
0!
b00000 k
0h
b00000 O
#481
1"&
b00000 S
1i
1n
1!
1/
1E
1"4
1q
10
0(
1":
1X
1h
#486
0n
b00100 w
b00100 k
0i
1b
b00100 N
0q
0/
00
0"&
b00100 .
0"4
1e
b00100 y
0":
b00100 M
0E
1#
0X
b00100 L
0!
0h
b00100 m
b00100 O
b00100 j
b00100 a
#491
1"&
1i
1n
1(
b00100 S
1!
1/
1E
1"4
1q
10
1":
1X
1h
#496
0n
0i
b11000 N
0q
0/
00
0"&
b11000 m
0"4
b11000 .
b11000 O
0":
b11000 y
b11000 w
b11000 M
0E
b11000 j
0X
0!
b11000 L
0h
b11000 a
b11000 k
#501
1"4
1q
1"&
b11000 S
10
1":
1i
1X
1n
1!
1h
1/
1E
#506
0n
0i
b00110 k
b00110 a
0q
0/
00
0"&
b00110 O
b00110 j
0"4
b00110 L
0":
0E
0X
0!
b00110 m
0h
b00110 M
b00110 .
b00110 w
b00110 y
b00110 N
#511
1"4
1q
1"&
10
1":
1i
1X
1n
b00110 S
1!
1h
1/
1E
#516
0n
0i
b10100 O
b10100 j
0q
0/
00
0"&
b10100 k
0"4
0":
b10100 L
0E
b10100 .
0X
b10100 a
0!
b10100 M
b10100 m
0h
b10100 N
b10100 w
b10100 y
#521
1"4
1q
1"&
10
1":
1i
1X
b10100 S
1n
1!
1h
1/
1E
#526
0n
0i
b00111 w
b00111 O
b00111 k
0q
0/
00
0"&
b00111 M
0"4
b00111 y
0":
b00111 L
b00111 .
b00111 m
0E
b00111 j
0X
0!
b00111 N
b00111 a
0h
#531
1"4
1q
b00111 S
1"&
10
1":
1i
1X
1n
1!
1h
1/
1E
#536
0n
b00001 y
0i
0q
b00001 m
0/
00
0"&
b00001 .
b00001 j
b00001 a
0"4
b00001 L
0":
b00001 O
0E
0X
b00001 M
b00001 k
b00001 N
0!
0h
b00001 w
#541
1"4
1q
1"&
10
1":
1i
1X
b00001 S
1n
1!
1h
1/
1E
#546
0n
b11011 M
b11011 m
0i
b11011 L
b11011 O
0q
0/
00
0"&
b11011 .
0"4
b11011 w
b11011 j
0":
0E
0X
b11011 k
0!
b11011 N
b11011 a
0h
b11011 y
#551
1"4
1q
1"&
10
1":
1i
1X
1n
b11011 S
1!
1h
1/
1E
#556
b01101 .
0n
b01101 w
0i
b01101 k
b01101 M
0q
0/
00
0"&
b01101 y
b01101 m
b01101 O
0"4
b01101 N
0":
b01101 j
b01101 a
0E
0X
b01101 L
0!
0h
#561
1"4
1q
1"&
10
b01101 S
1":
1i
1X
1n
1!
1h
1/
1E
#566
0n
b01011 y
b01011 a
0i
0q
0/
00
0"&
b01011 k
b01011 j
0"4
0":
0E
0X
b01011 .
b01011 m
0!
b01011 N
0h
b01011 M
b01011 O
b01011 w
b01011 L
#571
1"4
1q
1"&
10
1":
1i
1X
1n
1!
1h
1/
b01011 S
1E
#576
b01100 a
0n
b01100 w
0i
b01100 k
0q
0/
00
0"&
b01100 O
b01100 y
0"4
0":
b01100 N
b01100 .
0E
b01100 M
0X
b01100 L
b01100 j
b01100 m
0!
0h
#581
1"4
1q
1"&
10
1":
1i
1X
b01100 S
1n
1!
1h
1/
1E
#586
0n
0i
b00011 O
b00011 j
b00011 k
0q
0/
00
0"&
0"4
b00011 m
b00011 a
0":
0E
0X
b00011 y
0!
0h
b00011 L
b00011 w
b00011 M
b00011 .
b00011 N
#591
1"4
1q
1"&
b00011 S
10
1":
1i
1X
1n
1!
1h
1/
1E
#596
0n
b00101 M
0i
0q
0/
00
0"&
b00101 j
0"4
b00101 k
0":
b00101 y
0E
b00101 a
0X
b00101 m
b00101 O
b00101 .
0!
0h
b00101 N
b00101 L
b00101 w
#601
b00101 S
1"4
1q
1"&
10
1":
1i
1X
1n
1!
1h
1/
1E
#606
0n
b10011 k
b10011 M
b10011 w
0i
b10011 a
0q
0/
00
0"&
b10011 .
0"4
b10011 N
0":
b10011 L
0E
b10011 j
0X
b10011 m
0!
0h
b10011 O
b10011 y
#611
1"4
1q
1"&
10
1":
1i
1X
1n
1!
1h
1/
b10011 S
1E
#616
0n
b10111 k
0i
b10111 y
b10111 .
0q
b10111 M
0/
00
0"&
b10111 m
0"4
0":
b10111 N
0E
b10111 w
0X
b10111 L
b10111 j
0!
0h
b10111 O
b10111 a
#621
1"4
1q
1"&
10
1":
1i
1X
1n
b10111 S
1!
1h
1/
1E
#626
0n
b01111 M
b01111 y
b01111 j
0i
b01111 w
0q
b01111 .
0/
00
0"&
b01111 N
b01111 a
0"4
0":
b01111 L
0E
0X
b01111 k
b01111 m
0!
0h
b01111 O
#631
1"4
1q
1"&
10
1":
1i
1X
b01111 S
1n
1!
1h
1/
1E
#636
0n
b01000 w
0i
0q
0/
00
0"&
b01000 L
0"4
b01000 .
0":
b01000 m
b01000 y
b01000 N
0E
0X
b01000 k
b01000 M
0!
b01000 j
0h
b01000 O
b01000 a
#641
1"4
b01000 S
1q
1"&
10
1":
1i
1X
1n
1!
1h
1/
1E
#646
0n
0i
0q
0/
00
0"&
b01001 a
0"4
b01001 m
b01001 w
0":
0E
b01001 L
0X
b01001 j
b01001 .
b01001 y
0!
0h
b01001 k
b01001 N
b01001 M
b01001 O
#651
1"4
1q
1"&
10
1":
b01001 S
1i
1X
1n
1!
1h
1/
1E
#656
0n
b10101 M
0i
b10101 k
b10101 .
0q
0/
00
0"&
b10101 y
b10101 L
b10101 w
b10101 O
0"4
b10101 j
0":
0E
0X
0!
b10101 N
0h
b10101 a
b10101 m
#661
1"4
1q
1"&
10
1":
b10101 S
1i
1X
1n
1!
1h
1/
1E
#666
0n
0i
0q
0/
00
0"&
b11100 N
0"4
0":
0E
0X
b11100 m
b11100 y
b11100 .
b11100 M
0!
b11100 k
b11100 L
0h
b11100 O
b11100 a
b11100 w
b11100 j
#671
b11100 S
1"4
1q
1"&
10
1":
1i
1X
1n
1!
1h
1/
1E
#676
0n
b10000 m
0i
0q
0/
00
0"&
0"4
b10000 j
b10000 M
0":
b10000 y
b10000 O
0E
0X
b10000 w
b10000 k
0!
b10000 .
0h
b10000 a
b10000 N
b10000 L
#681
1"4
1q
1"&
b10000 S
10
1":
1i
1X
1n
1!
1h
1/
1E
#686
0n
0i
b10010 j
0q
0/
00
0"&
b10010 a
b10010 .
0"4
b10010 y
b10010 m
0":
0E
0X
b10010 w
b10010 M
0!
b10010 L
0h
b10010 k
b10010 O
b10010 N
#691
1"4
1q
1"&
10
1":
1i
1X
b10010 S
1n
1!
1h
1/
1E
#696
0n
b11010 N
0i
b11010 w
b11010 O
0q
0/
00
0"&
b11010 j
b11010 y
0"4
b11010 a
b11010 L
0":
b11010 m
0E
b11010 k
0X
0!
b11010 .
0h
b11010 M
#701
1"4
1q
1"&
b11010 S
10
1":
1i
1X
1n
1!
1h
1/
1E
#706
0n
b11111 m
b11111 k
0i
b11111 w
0q
0/
00
0"&
b11111 L
b11111 M
b11111 y
0"4
b11111 a
0":
b11111 N
0E
0X
b11111 j
0!
b11111 .
0h
b11111 O
#711
1"4
b11111 S
1q
1"&
10
1":
1i
1X
1n
1!
1h
1/
1E
#716
b00010 N
b00010 y
0i
b00010 M
0q
0/
00
0"&
b00000000000000000000010000000000 `
0"4
b00000000000000000000010000000000 "8
b00010 j
0":
b00010 O
b00000000000000000000010000000000 ,
0X
b00010 L
b00000000000000000000010000000000 "5
b00000000000000000000010000000000 "A
0n
b00010 .
b00010 w
b00010 k
b00000000000000000000010000000000 H
b00010 m
0E
0!
0h
b00000000000000000000010000000000 "=
b00000000000000000000010000000000 K
b00010 a
b00000000000000000000010000000000 _
#721
1"&
b00000000000000000000010000000000 ".
b00000000000000000000010000000000 P
1i
b00010 S
1n
1!
1/
1E
1"4
1q
10
b00000000000000000000010000000000 1
1":
b00000000000000000000010000000000 =
1X
b00000000000000000000010000000000 "$
1h
b00000000000000000000010000000000 +
#726
b11101 w
b00000000000000000000000000000000 ".
0i
b11101 M
b00000000000000000000000000000000 "A
b00000000000000000000000000000000 `
b00000000000000000000000000000000 "5
0q
0/
00
0"&
b00000000000000000000000000000000 "8
b00000000000000000000000000000000 1
0"4
0":
b00000000000000000000000000000000 ,
0X
b00000000000000000000000000000000 "=
b11101 m
0n
b00000000000000000000000000000000 =
b00000000000000000000000000000000 H
b11101 L
b11101 O
b11101 N
b11101 k
b11101 y
b11101 a
b00000000000000000000000000000000 +
b11101 j
b00000000000000000000000000000000 P
0E
0!
b00000000000000000000000000000000 K
0h
b11101 .
b00000000000000000000000000000000 _
#731
1"&
b00000000000000000000000000000000 "$
b11101 S
1i
1n
1!
1/
1E
1"4
1q
10
1":
1X
1h
#736
0n
b11001 N
b11001 k
0i
b11001 a
b11001 m
0q
0/
00
0"&
b11001 M
0"4
0":
b11001 .
0E
b11001 O
0X
b11001 L
0!
0h
b11001 y
b11001 w
b11001 j
#741
1"4
1q
1"&
b11001 S
10
1":
1i
1X
1n
1!
1h
1/
1E
#746
0n
b10110 O
0i
b10110 L
0q
0/
00
0"&
b10110 a
b10110 .
b10110 j
0"4
b10110 y
0":
0E
b10110 w
0X
b10110 N
0!
b10110 m
0h
b10110 M
b10110 k
#751
1"4
1q
1"&
b10110 S
10
1":
1i
1X
1n
1!
1h
1/
1E
#756
0n
0i
b11110 k
b11110 m
0q
0/
00
0"&
b11110 w
b11110 j
b11110 N
0"4
0":
b11110 O
0E
0X
b11110 y
b11110 M
b11110 L
0!
b11110 a
b11110 .
0h
#761
b11110 S
1"4
1q
1"&
10
1":
1i
1X
1n
1!
1h
1/
1E
#766
0i
0"
b00000 N
b00000 a
0q
0/
00
0"&
0*
b00000 M
0"4
b00000 w
0":
0%
0<
0X
0@
b00000 .
b00000 k
b00000 O
0n
0""
b00000 y
0C
0#
07
b00000 m
b00000 j
0e
0b
0E
b00000 L
0!
0h
02
#771
1"&
b00000 S
1i
1n
1!
1/
1E
1"4
1q
10
0(
1":
1X
1h
#776
0n
0":
0i
0E
0X
0q
0!
0/
00
0"&
0h
0"4
#781
1"4
1q
1"&
10
1":
1i
1X
1n
1!
1h
1/
1E
#786
0n
0":
0i
0E
0X
0q
0!
0/
00
0"&
0h
0"4
#791
1"4
1q
1"&
10
1":
1i
1X
1n
1!
1h
1/
1E
